{
  "Persons": [
    {
      "id": 1,
      "name": "Иван",
      "surname": "Иванов",
      "phone": "9012345678"
    },
    {
      "id": 2,
      "name": "Василий",
      "surname": "Васильев",
      "phone": "9012345678"
    },
    {
      "id": 3,
      "name": "Петр",
      "surname": "Петров",
      "phone": "9012345678"
    },
    {
      "id": 4,
      "name": "Павел",
      "surname": "Павлов",
      "phone": "9012345678"
    },
    {
      "id": 5,
      "name": "Михаил",
      "surname": "Михайлов",
      "phone": "9012345678"
    },
    {
      "id": 6,
      "name": "Александр",
      "surname": "Александров",
      "phone": "9012345678"
    },
    {
      "id": 7,
      "name": "Роман",
      "surname": "Романов",
      "phone": "9012345678"
    },
    {
      "id": 8,
      "name": "Алексей",
      "surname": "Алексеев",
      "phone": "9012345678"
    },
    {
      "id": 9,
      "name": "Кирилл",
      "surname": "Кириллов",
      "phone": "9012345678"
    },
    {
      "id": 10,
      "name": "Олег",
      "surname": "Олегов",
      "phone": "9012345678"
    }
  ]
}